<?xml version="1.0" encoding="UTF-8" standalone="no"?><svg xmlns="http://www.w3.org/2000/svg" xmlns:xlink="http://www.w3.org/1999/xlink" contentScriptType="application/ecmascript" contentStyleType="text/css" height="93.75px" preserveAspectRatio="none" style="width:600px;height:93px;background:#00000000;" version="1.1" viewBox="0 0 600 93" width="600px" zoomAndPan="magnify"><defs><filter height="300%" id="ff8x4va5lbdus" width="300%" x="-1" y="-1"><feGaussianBlur result="blurOut" stdDeviation="2.0833333333333335"/><feColorMatrix in="blurOut" result="blurOut2" type="matrix" values="0 0 0 0 0 0 0 0 0 0 0 0 0 0 0 0 0 0 .4 0"/><feOffset dx="4.166666666666667" dy="4.166666666666667" in="blurOut2" result="blurOut3"/><feBlend in="SourceGraphic" in2="blurOut3" mode="normal"/></filter><linearGradient id="gf8x4va5lbdus0" x1="50%" x2="50%" y1="0%" y2="100%"><stop offset="0%" stop-color="#4DABF5"/><stop offset="100%" stop-color="#2196F3"/></linearGradient></defs><g><ellipse cx="27.0833" cy="46.875" fill="#9C27B0" filter="url(#ff8x4va5lbdus)" rx="10.4167" ry="10.4167" style="stroke:none;stroke-width:1.0416666666666667;"/><rect fill="url(#gf8x4va5lbdus0)" filter="url(#ff8x4va5lbdus)" height="58.6918" rx="13.0208" ry="13.0208" style="stroke:#2196F3;stroke-width:1.0416666666666667;" width="90.625" x="58.8542" y="17.7083"/><text fill="#FFFFFF" font-family="&quot;Verdana&quot;" font-size="12.5" lengthAdjust="spacing" textLength="48.9583" x="79.6875" y="51.9043">pdftopdf</text><rect fill="url(#gf8x4va5lbdus0)" filter="url(#ff8x4va5lbdus)" height="58.6918" rx="13.0208" ry="13.0208" style="stroke:#2196F3;stroke-width:1.0416666666666667;" width="107.2917" x="170.3125" y="17.7083"/><text fill="#FFFFFF" font-family="&quot;Verdana&quot;" font-size="12.5" lengthAdjust="spacing" textLength="65.625" x="191.1458" y="51.9043">pdftoraster</text><rect fill="url(#gf8x4va5lbdus0)" filter="url(#ff8x4va5lbdus)" height="58.6918" rx="13.0208" ry="13.0208" style="stroke:#2196F3;stroke-width:1.0416666666666667;" width="98.9583" x="298.4375" y="17.7083"/><text fill="#FFFFFF" font-family="&quot;Verdana&quot;" font-size="12.5" lengthAdjust="spacing" textLength="57.2917" x="319.2708" y="51.9043">rastertoql</text><rect fill="url(#gf8x4va5lbdus0)" filter="url(#ff8x4va5lbdus)" height="58.6918" rx="13.0208" ry="13.0208" style="stroke:#2196F3;stroke-width:1.0416666666666667;" width="121.875" x="418.2292" y="17.7083"/><text fill="#FFFFFF" font-family="&quot;Verdana&quot;" font-size="12.5" lengthAdjust="spacing" textLength="80.2083" x="439.0625" y="51.9043">printer device</text><ellipse cx="571.875" cy="46.875" filter="url(#ff8x4va5lbdus)" rx="10.4167" ry="10.4167" style="stroke:#9C27B0;stroke-width:1.0416666666666667;fill:none;"/><ellipse cx="572.3958" cy="47.3958" fill="#9C27B0" rx="6.25" ry="6.25" style="stroke:none;stroke-width:1.0416666666666667;"/><!--MD5=[cc5fe7ef74e8de1c42dfd5ad50966e40]
link start to pdftopdf--><path d="M37.625,46.875 C42.7083,46.875 47.8021,46.875 52.8958,46.875 " fill="none" id="start-to-pdftopdf" style="stroke:#2196F3;stroke-width:3.125;"/><polygon fill="#2196F3" points="58.4167,46.875,49.0417,42.7083,53.2083,46.875,49.0417,51.0417,58.4167,46.875" style="stroke:#2196F3;stroke-width:3.125;"/><!--MD5=[b5a072bd5f2de0981f3cd7740768590c]
link pdftopdf to pdftoraster--><path d="M149.5521,46.875 C154.6042,46.875 159.6563,46.875 164.7083,46.875 " fill="none" id="pdftopdf-to-pdftoraster" style="stroke:#2196F3;stroke-width:3.125;"/><polygon fill="#2196F3" points="170.1875,46.875,160.8125,42.7083,164.9792,46.875,160.8125,51.0417,170.1875,46.875" style="stroke:#2196F3;stroke-width:3.125;"/><!--MD5=[aa950fefd08144b0cec02dd6e6ed04f6]
link pdftoraster to rastertoql--><path d="M277.7083,46.875 C282.7396,46.875 287.7813,46.875 292.8125,46.875 " fill="none" id="pdftoraster-to-rastertoql" style="stroke:#2196F3;stroke-width:3.125;"/><polygon fill="#2196F3" points="298.2708,46.875,288.8958,42.7083,293.0625,46.875,288.8958,51.0417,298.2708,46.875" style="stroke:#2196F3;stroke-width:3.125;"/><!--MD5=[a926e298d9d80ddfdf62ec5ff209c941]
link rastertoql to printer device--><path d="M397.6458,46.875 C402.6354,46.875 407.625,46.875 412.6146,46.875 " fill="none" id="rastertoql-to-printer device" style="stroke:#2196F3;stroke-width:3.125;"/><polygon fill="#2196F3" points="418.0313,46.875,408.6563,42.7083,412.8229,46.875,408.6563,51.0417,418.0313,46.875" style="stroke:#2196F3;stroke-width:3.125;"/><!--MD5=[1f31f77445c40bb6942ec37a735ae305]
link printer device to end--><path d="M540.3646,46.875 C545.4271,46.875 550.4896,46.875 555.5521,46.875 " fill="none" id="printer device-to-end" style="stroke:#2196F3;stroke-width:3.125;"/><polygon fill="#2196F3" points="561.0417,46.875,551.6667,42.7083,555.8333,46.875,551.6667,51.0417,561.0417,46.875" style="stroke:#2196F3;stroke-width:3.125;"/><!--MD5=[3ed03781fab39d0a5126cfc798dd0674]
@startuml inline_umlgraph_1.svg
!theme materia
(*) -right-> "pdftopdf"
-right-> "pdftoraster"
-right-> "rastertoql"
-right-> "printer device"
-right-> (*)
@enduml

@startuml inline_umlgraph_1.svg



skinparam backgroundColor transparent
skinparam useBetaStyle false






<style>
  root {
    BackgroundColor transparent
    FontColor #FFF
    HyperLinkColor #fd7e14
    LineColor #1a78c2
    LineThickness 1
    Margin 10
    Padding 6
    Shadowing 0.0
  }
  node {
   Padding 15
   roundcorner 20
   BackgroundColor #2196F3-#1a78c2
  }
  caption {
    LineThickness 0
  }
  footer {
    LineThickness 0
  }
  groupHeader {
    BackgroundColor #fff
    FontColor #9C27B0
    FontStyle bold
  }
  header {
    LineThickness 0
  }
  referenceHeader {
    BackgroundColor transparent
    FontColor #222
    FontStyle bold
  }
  separator {
    BackgroundColor #222
    FontColor transparent
    FontStyle bold
  }
  title {
	FontSize 20
	BorderRoundCorner            8
	BorderThickness 	         1
	BackgroundColor  #fff-#fff
	FontColor #2196F3
	BorderColor #fff
  }
  nwdiagDiagram {
	network {
			FontColor #FFF
	BorderColor #2196F3
	BackgroundColor #4dabf5-#2196F3    
		LineColor #2196F3
		LineThickness 1.0
		FontColor #1a78c2
	}
	server {
			FontColor #FFF
	BorderColor #2196F3
	BackgroundColor #4dabf5-#2196F3
	}
	arrow {
		FontColor #1a78c2
		LineColor #1a78c2
	}
	group {
		BackGroundColor #fff
		LineColor $LIGHT_DARK
		LineThickness 2.0
		Margin 5
		Padding 5
	}
  }
  ganttDiagram {
	task {
			FontColor #FFF
	BorderColor #2196F3
	BackgroundColor #4dabf5-#2196F3
		LineColor #2196F3
		Margin 10
		Padding 6
	}
	note {
		FontColor #FFF
		LineColor #7D1F8D
		BackGroundColor #9C27B0
	}
	separator {
		LineColor #fff
		BackGroundColor #fff-#cccccc
		FontColor #222
	}
	milestone {
		FontColor #9C27B0
		FontSize 16
		FontStyle italic
		BackGroundColor #fff
		LineColor #cccccc
	}
	timeline {
		BackgroundColor #fff
		FontColor #222
	}
	closed {
		BackgroundColor #CC7A00
		FontColor #FFF
	}
  }
</style>
skinparam defaultFontName       "Verdana"
skinparam defaultFontSize       12
skinparam dpi                   100
skinparam shadowing             true
skinparam roundcorner           8
skinparam ParticipantPadding    40
skinparam BoxPadding            40
skinparam Padding               10
skinparam ArrowColor            #666
skinparam stereotype {
    CBackgroundColor #fff
    CBorderColor #cccccc
    ABackgroundColor #70bf73
    ABorderColor #3D8C40
    IBackgroundColor #B7161C
    IBorderColor #b7161c
    EBackgroundColor #ffad33
    EBorderColor #CC7A00
    NBackgroundColor #b052c0
    NBorderColor #7D1F8D
}
skinparam title {
	FontColor	                 #2196F3
	BorderColor	                 #cccccc
	FontSize	    	         20
	BorderRoundCorner            8
	BorderThickness 	         1
	BackgroundColor              #fff-#fff
}

skinparam legend {
	BackgroundColor #fff
	BorderColor #cccccc
	FontColor #222
}

skinparam swimlane {
	BorderColor #9C27B0
	BorderThickness 2
	TitleBackgroundColor  #fff-#fff
	TitleFontColor #2196F3
}


skinparam activity {
		FontColor #FFF
	BorderColor #2196F3
	BackgroundColor #4dabf5-#2196F3
	BarColor #4CAF50
	StartColor #9C27B0
	EndColor #9C27B0
	DiamondBackgroundColor #FFF-#fff
  	DiamondBorderColor #cccccc
	DiamondFontColor #222
}


skinparam participant {
		FontColor #FFF
	BorderColor #2196F3
	BackgroundColor #4dabf5-#2196F3
	ParticipantBorderThickness 2
}


skinparam actor {
		FontColor #FFF
	BorderColor #2196F3
	BackgroundColor #4dabf5-#2196F3
	FontColor #222
}


skinparam arrow {
	Thickness 3
	Color #2196F3
	FontColor #222
}


skinparam sequence {
	BorderColor #2196F3
	TitleFontColor #2196F3
	BackgroundColor transparent
	StartColor #2196F3
	EndColor #2196F3
	BoxBackgroundColor #fff
	BoxBorderColor #666
	BoxFontColor #222
	DelayFontColor #222
	LifeLineBorderColor #cccccc
	LifeLineBorderThickness 2
	LifeLineBackgroundColor #fff
	GroupBorderColor #666
	GroupFontColor #222
	GroupHeaderFontColor #9C27B0
	DividerBackgroundColor #FFF-#fff
    DividerBorderColor #666
    DividerBorderThickness 2
    DividerFontColor #222
	ReferenceBackgroundColor transparent
	ReferenceBorderColor #666
	ReferenceFontColor #222
	ReferenceHeaderFontColor #9C27B0
	StereotypeFontColor #FFF
}


skinparam partition {
	BorderColor #2196F3
	FontColor #2196F3
	BackgroundColor transparent
}


skinparam collections {
		FontColor #FFF
	BorderColor #2196F3
	BackgroundColor #4dabf5-#2196F3
}


skinparam control {
		FontColor #FFF
	BorderColor #2196F3
	BackgroundColor #4dabf5-#2196F3
	FontColor #222
}


skinparam entity {
		FontColor #FFF
	BorderColor #2196F3
	BackgroundColor #4dabf5-#2196F3
	FontColor #222
}


skinparam boundary {
		FontColor #FFF
	BorderColor #2196F3
	BackgroundColor #4dabf5-#2196F3
	FontColor #222
}


skinparam agent {
	BackgroundColor #orange
	BorderColor #999999
	FontColor #333333
}


skinparam note {
	BorderThickness 1
	BackgroundColor #b052c0-#9C27B0
	BorderColor #9C27B0
	FontColor #FFF
}


skinparam artifact {
	BackgroundColor #FFF-#fff
	BorderColor #666
	FontColor #666
}


skinparam component {
		FontColor #FFF
	BorderColor #2196F3
	BackgroundColor #4dabf5-#2196F3
}


skinparam interface {
	BackgroundColor  #B7161C
	BorderColor  #e51c23
	FontColor #222
}


skinparam storage {
	BackgroundColor #ffad33-#ff9800
  	BorderColor #ff9800
	FontColor #FFF
}


skinparam node {
	BackgroundColor #fff-#fff
	BorderColor #222
	FontColor #222
}


skinparam cloud {
	BackgroundColor #F2FCFE-#eeeeee
	BorderColor #F2FCFE
	FontColor #222
}


skinparam database {
		FontColor #FFF
	BorderColor #2196F3
	BackgroundColor #4dabf5-#2196F3
	FontColor #222
}


skinparam class {
		FontColor #FFF
	BorderColor #2196F3
	BackgroundColor #4dabf5-#2196F3
	HeaderBackgroundColor #2196F3-#1a78c2
	StereotypeFontColor #222
	BorderThickness 1
	AttributeFontColor #fff
	AttributeFontSize 11
}


skinparam object {
		FontColor #FFF
	BorderColor #2196F3
	BackgroundColor #4dabf5-#2196F3
	StereotypeFontColor #222
	BorderThickness 1
	AttributeFontColor #222
	AttributeFontSize 11
}


skinparam usecase {
		FontColor #FFF
	BorderColor #2196F3
	BackgroundColor #4dabf5-#2196F3
	BorderThickness 2
	StereotypeFontColor #2196F3
}


skinparam rectangle {
	FontColor #2196F3
	BackgroundColor #fff-#fff
	BorderThickness 2
	StereotypeFontColor #2196F3
}


skinparam package {
		FontColor #FFF
	BorderColor #2196F3
	BackgroundColor #4dabf5-#2196F3
	BackgroundColor #fff-#fff
	BorderThickness 2
}


skinparam folder {
	BackgroundColor #FFF-#fff
  	BorderColor #ff9800
	FontColor #ff9800
	BorderThickness 2
}


skinparam frame {
	BackgroundColor #FFF-#fff
  	BorderColor #9C27B0
	FontColor #9C27B0
	BorderThickness 2
}


skinparam state {
		FontColor #FFF
	BorderColor #2196F3
	BackgroundColor #4dabf5-#2196F3
	BorderColor #1a78c2
	StartColor #9C27B0
	EndColor #9C27B0
	AttributeFontColor #222
	AttributeFontSize 11
}


skinparam queue {
		FontColor #FFF
	BorderColor #2196F3
	BackgroundColor #4dabf5-#2196F3
}


skinparam card {
	BackgroundColor #b052c0-#9C27B0
	BorderColor #9C27B0
	FontColor #FFF
}


skinparam file {
	BackgroundColor #fff-#fff
	BorderColor #666
	FontColor #666

}


skinparam stack {
		FontColor #FFF
	BorderColor #2196F3
	BackgroundColor #4dabf5-#2196F3
}
(*) -right-> "pdftopdf"
-right-> "pdftoraster"
-right-> "rastertoql"
-right-> "printer device"
-right-> (*)
@enduml

PlantUML version 1.2021.16(Wed Dec 08 18:25:22 CET 2021)
(GPL source distribution)
Java Runtime: OpenJDK Runtime Environment
JVM: OpenJDK 64-Bit Server VM
Default Encoding: UTF-8
Language: de
Country: DE
--></g></svg>