<?xml version='1.0' encoding='UTF-8' standalone='no'?>
<svg 
    xmlns='http://www.w3.org/2000/svg'
    width='770'
    height='546'
    shape-rendering='geometricPrecision'
    version='1.0'>
  <defs>
    <style type='text/css'>
      @font-face {
        font-family: Custom;
        src: url('Lato,regular');
      }
    </style>
    <filter id='f2' x='0' y='0' width='200%' height='200%'>
      <feOffset result='offOut' in='SourceGraphic' dx='5' dy='5' />
      <feGaussianBlur result='blurOut' in='offOut' stdDeviation='3' />
      <feBlend in='SourceGraphic' in2='blurOut' mode='normal' />
    </filter>
  </defs>
  <g stroke-width='1' stroke-linecap='square' stroke-linejoin='round'>
    <rect x='0' y='0' width='770' height='546' style='fill: #ffffff'/>
    <path stroke='gray' fill='gray' filter='url(#f2)' d='M135.0 119.0 L505.0 119.0 L505.0 427.0 L135.0 427.0 z' />
    <path stroke='#000000' stroke-width='1,000000' stroke-linecap='round' stroke-linejoin='round' fill='#eeeeee' d='M135.0 119.0 L505.0 119.0 L505.0 427.0 L135.0 427.0 z' />
    <path stroke='none' stroke-width='1,000000' stroke-linecap='round' stroke-linejoin='round' fill='#000000' d='M150.0 56.0 L140.0 63.0 L150.0 70.0 z' />
    <path stroke='none' stroke-width='1,000000' stroke-linecap='round' stroke-linejoin='round' fill='#000000' d='M490.0 56.0 L500.0 63.0 L490.0 70.0 z' />
    <path stroke='none' stroke-width='1,000000' stroke-linecap='round' stroke-linejoin='round' fill='#000000' d='M85.0 98.0 L80.0 112.0 L90.0 112.0 z' />
    <path stroke='none' stroke-width='1,000000' stroke-linecap='round' stroke-linejoin='round' fill='#000000' d='M540.0 98.0 L530.0 105.0 L540.0 112.0 z' />
    <path stroke='none' stroke-width='1,000000' stroke-linecap='round' stroke-linejoin='round' fill='#000000' d='M315.0 126.0 L310.0 140.0 L320.0 140.0 z' />
    <path stroke='none' stroke-width='1,000000' stroke-linecap='round' stroke-linejoin='round' fill='#000000' d='M565.0 126.0 L560.0 140.0 L570.0 140.0 z' />
    <path stroke='none' stroke-width='1,000000' stroke-linecap='round' stroke-linejoin='round' fill='#000000' d='M150.0 266.0 L140.0 273.0 L150.0 280.0 z' />
    <path stroke='none' stroke-width='1,000000' stroke-linecap='round' stroke-linejoin='round' fill='#000000' d='M490.0 266.0 L500.0 273.0 L490.0 280.0 z' />
    <path stroke='none' stroke-width='1,000000' stroke-linecap='round' stroke-linejoin='round' fill='#000000' d='M310.0 406.0 L315.0 420.0 L320.0 406.0 z' />
    <path stroke='none' stroke-width='1,000000' stroke-linecap='round' stroke-linejoin='round' fill='#000000' d='M560.0 406.0 L565.0 420.0 L570.0 406.0 z' />
    <path stroke='none' stroke-width='1,000000' stroke-linecap='round' stroke-linejoin='round' fill='#000000' d='M80.0 434.0 L85.0 448.0 L90.0 434.0 z' />
    <path stroke='none' stroke-width='1,000000' stroke-linecap='round' stroke-linejoin='round' fill='#000000' d='M540.0 434.0 L530.0 441.0 L540.0 448.0 z' />
    <path stroke='#000000' stroke-width='1,000000' stroke-linecap='round' stroke-linejoin='round' fill='none' d='M85.0 105.0 L85.0 259.0 ' />
    <path stroke='#000000' stroke-width='1,000000' stroke-linecap='round' stroke-linejoin='round' fill='none' d='M125.0 35.0 L125.0 511.0 ' />
    <path stroke='#000000' stroke-width='1,000000' stroke-linecap='round' stroke-linejoin='round' fill='none' d='M315.0 273.0 L495.0 273.0 ' />
    <path stroke='#000000' stroke-width='1,000000' stroke-linecap='round' stroke-linejoin='round' fill='none' d='M315.0 273.0 L145.0 273.0 ' />
    <path stroke='#000000' stroke-width='1,000000' stroke-linecap='round' stroke-linejoin='round' fill='none' d='M315.0 413.0 L315.0 273.0 ' />
    <path stroke='#000000' stroke-width='1,000000' stroke-linecap='round' stroke-linejoin='round' fill='none' d='M495.0 455.0 L145.0 455.0 ' />
    <path stroke='#000000' stroke-width='1,000000' stroke-linecap='round' stroke-linejoin='round' fill='none' d='M75.0 91.0 L115.0 91.0 ' />
    <path stroke='#000000' stroke-width='1,000000' stroke-linecap='round' stroke-linejoin='round' fill='none' d='M145.0 63.0 L275.0 63.0 ' />
    <path stroke='#000000' stroke-width='1,000000' stroke-linecap='round' stroke-linejoin='round' fill='none' d='M145.0 91.0 L495.0 91.0 ' />
    <path stroke='#000000' stroke-width='1,000000' stroke-linecap='round' stroke-linejoin='round' fill='none' d='M85.0 441.0 L85.0 287.0 ' />
    <path stroke='#000000' stroke-width='1,000000' stroke-linecap='round' stroke-linejoin='round' fill='none' d='M315.0 133.0 L315.0 245.0 ' />
    <path stroke='#000000' stroke-width='1,000000' stroke-linecap='round' stroke-linejoin='round' fill='none' d='M75.0 455.0 L115.0 455.0 ' />
    <path stroke='#000000' stroke-width='1,000000' stroke-linecap='round' stroke-linejoin='round' fill='none' d='M355.0 63.0 L495.0 63.0 ' />
    <path stroke='#000000' stroke-width='1,000000' stroke-linecap='round' stroke-linejoin='round' fill='none' d='M515.0 511.0 L515.0 35.0 ' />
    <path stroke='#000000' stroke-width='1,000000' stroke-linecap='round' stroke-linejoin='round' fill='none' d='M565.0 133.0 L565.0 259.0 ' />
    <path stroke='#000000' stroke-width='1,000000' stroke-linecap='round' stroke-linejoin='round' fill='none' d='M585.0 119.0 L525.0 119.0 ' />
    <path stroke='#000000' stroke-width='1,000000' stroke-linecap='round' stroke-linejoin='round' fill='none' d='M525.0 91.0 L575.0 91.0 ' />
    <path stroke='#000000' stroke-width='1,000000' stroke-linecap='round' stroke-linejoin='round' fill='none' d='M565.0 413.0 L565.0 287.0 ' />
    <path stroke='#000000' stroke-width='1,000000' stroke-linecap='round' stroke-linejoin='round' fill='none' d='M555.0 105.0 L535.0 105.0 ' />
    <path stroke='#000000' stroke-width='1,000000' stroke-linecap='round' stroke-linejoin='round' fill='none' d='M525.0 455.0 L575.0 455.0 ' />
    <path stroke='#000000' stroke-width='1,000000' stroke-linecap='round' stroke-linejoin='round' fill='none' d='M585.0 427.0 L525.0 427.0 ' />
    <path stroke='#000000' stroke-width='1,000000' stroke-linecap='round' stroke-linejoin='round' fill='none' d='M555.0 441.0 L535.0 441.0 ' />
    <path stroke='#000000' stroke-width='1,000000' stroke-linecap='round' stroke-linejoin='round' fill='none' d='M505.0 35.0 L505.0 119.0 ' />
    <path stroke='#000000' stroke-width='1,000000' stroke-linecap='round' stroke-linejoin='round' fill='none' d='M135.0 119.0 L135.0 35.0 ' />
    <path stroke='#000000' stroke-width='1,000000' stroke-linecap='round' stroke-linejoin='round' fill='none' d='M135.0 427.0 L135.0 511.0 ' />
    <path stroke='#000000' stroke-width='1,000000' stroke-linecap='round' stroke-linejoin='round' fill='none' d='M505.0 511.0 L505.0 427.0 ' />
    <text x='34' y='96' font-family='Custom' font-size='13' stroke='none' fill='#000000' ><![CDATA[cut]]></text>
    <text x='287' y='264' font-family='Custom' font-size='13' stroke='none' fill='#000000' ><![CDATA[Print area]]></text>
    <text x='55' y='278' font-family='Custom' font-size='13' stroke='none' fill='#000000' ><![CDATA[106 mm]]></text>
    <text x='294' y='68' font-family='Custom' font-size='13' stroke='none' fill='#000000' ><![CDATA[62 mm]]></text>
    <text x='591' y='446' font-family='Custom' font-size='13' stroke='none' fill='#000000' ><![CDATA[3 mm bottom margin]]></text>
    <text x='590' y='460' font-family='Custom' font-size='13' stroke='none' fill='#000000' ><![CDATA[cut]]></text>
    <text x='34' y='460' font-family='Custom' font-size='13' stroke='none' fill='#000000' ><![CDATA[cut]]></text>
    <text x='535' y='278' font-family='Custom' font-size='13' stroke='none' fill='#000000' ><![CDATA[100 mm]]></text>
    <text x='590' y='96' font-family='Custom' font-size='13' stroke='none' fill='#000000' ><![CDATA[cut]]></text>
    <text x='589' y='110' font-family='Custom' font-size='13' stroke='none' fill='#000000' ><![CDATA[3 mm top margin]]></text>
  </g>
</svg>