<?xml version='1.0' encoding='UTF-8' standalone='no'?>
<svg 
    xmlns='http://www.w3.org/2000/svg'
    width='1360'
    height='602'
    shape-rendering='geometricPrecision'
    version='1.0'>
  <defs>
    <style type='text/css'>
      @font-face {
        font-family: Custom;
        src: url('Lato,regular');
      }
    </style>
    <filter id='f2' x='0' y='0' width='200%' height='200%'>
      <feOffset result='offOut' in='SourceGraphic' dx='5' dy='5' />
      <feGaussianBlur result='blurOut' in='offOut' stdDeviation='3' />
      <feBlend in='SourceGraphic' in2='blurOut' mode='normal' />
    </filter>
  </defs>
  <g stroke-width='1' stroke-linecap='square' stroke-linejoin='round'>
    <rect x='0' y='0' width='1360' height='602' style='fill: #ffffff'/>
    <path stroke='gray' fill='gray' filter='url(#f2)' d='M600.0 483.0 Q595.0 483.0 595.0 476.0 L595.0 126.0 Q595.0 119.0 600.0 119.0 L1320.0 119.0 L1320.0 119.0 Q1325.0 119.0 1325.0 126.0 L1325.0 476.0 L1325.0 476.0 Q1325.0 483.0 1320.0 483.0 L600.0 483.0 z' />
    <path stroke='gray' fill='gray' filter='url(#f2)' d='M605.0 455.0 L605.0 147.0 L1315.0 147.0 L1315.0 455.0 z' />
    <path stroke='gray' fill='gray' filter='url(#f2)' d='M280.0 119.0 Q285.0 119.0 285.0 126.0 L285.0 476.0 Q285.0 483.0 280.0 483.0 L40.0 483.0 L40.0 483.0 Q35.0 483.0 35.0 476.0 L35.0 126.0 L35.0 126.0 Q35.0 119.0 40.0 119.0 L280.0 119.0 z' />
    <path stroke='gray' fill='gray' filter='url(#f2)' d='M275.0 147.0 L275.0 455.0 L45.0 455.0 L45.0 147.0 z' />
    <path stroke='#000000' stroke-width='1,000000' stroke-linecap='round' stroke-linejoin='round' fill='white' d='M600.0 483.0 Q595.0 483.0 595.0 476.0 L595.0 126.0 Q595.0 119.0 600.0 119.0 L1320.0 119.0 L1320.0 119.0 Q1325.0 119.0 1325.0 126.0 L1325.0 476.0 L1325.0 476.0 Q1325.0 483.0 1320.0 483.0 L600.0 483.0 z' />
    <path stroke='#000000' stroke-width='1,000000' stroke-linecap='round' stroke-linejoin='round' fill='#eeeeee' d='M605.0 455.0 L605.0 147.0 L1315.0 147.0 L1315.0 455.0 z' />
    <path stroke='#000000' stroke-width='1,000000' stroke-linecap='round' stroke-linejoin='round' fill='white' d='M280.0 119.0 Q285.0 119.0 285.0 126.0 L285.0 476.0 Q285.0 483.0 280.0 483.0 L40.0 483.0 L40.0 483.0 Q35.0 483.0 35.0 476.0 L35.0 126.0 L35.0 126.0 Q35.0 119.0 40.0 119.0 L280.0 119.0 z' />
    <path stroke='#000000' stroke-width='1,000000' stroke-linecap='round' stroke-linejoin='round' fill='#eeeeee' d='M275.0 147.0 L275.0 455.0 L45.0 455.0 L45.0 147.0 z' />
    <path stroke='#000000' stroke-width='1,000000' stroke-linecap='round' stroke-linejoin='round' fill='none' d='M595.0 567.0 L595.0 532.0 Q595.0 525.0 600.0 525.0 L1320.0 525.0 L1320.0 525.0 Q1325.0 525.0 1325.0 532.0 L1325.0 567.0 L1325.0 567.0 ' />
    <path stroke='#000000' stroke-width='1,000000' stroke-linecap='round' stroke-linejoin='round' fill='none' d='M1325.0 35.0 L1325.0 70.0 Q1325.0 77.0 1320.0 77.0 L600.0 77.0 L600.0 77.0 Q595.0 77.0 595.0 70.0 L595.0 35.0 L595.0 35.0 ' />
    <path stroke='#000000' stroke-width='1,000000' stroke-linecap='round' stroke-linejoin='round' fill='none' d='M35.0 35.0 L35.0 70.0 Q35.0 77.0 40.0 77.0 L280.0 77.0 L280.0 77.0 Q285.0 77.0 285.0 70.0 L285.0 35.0 L285.0 35.0 ' />
    <path stroke='#000000' stroke-width='1,000000' stroke-linecap='round' stroke-linejoin='round' fill='none' d='M35.0 567.0 L35.0 532.0 Q35.0 525.0 40.0 525.0 L280.0 525.0 L280.0 525.0 Q285.0 525.0 285.0 532.0 L285.0 567.0 L285.0 567.0 ' />
    <path stroke='none' stroke-width='1,000000' stroke-linecap='round' stroke-linejoin='round' fill='#000000' d='M320.0 126.0 L310.0 133.0 L320.0 140.0 z' />
    <path stroke='none' stroke-width='1,000000' stroke-linecap='round' stroke-linejoin='round' fill='#000000' d='M560.0 126.0 L570.0 133.0 L560.0 140.0 z' />
    <path stroke='none' stroke-width='1,000000' stroke-linecap='round' stroke-linejoin='round' fill='#000000' d='M145.0 154.0 L140.0 168.0 L150.0 168.0 z' />
    <path stroke='none' stroke-width='1,000000' stroke-linecap='round' stroke-linejoin='round' fill='#000000' d='M955.0 154.0 L950.0 168.0 L960.0 168.0 z' />
    <path stroke='none' stroke-width='1,000000' stroke-linecap='round' stroke-linejoin='round' fill='#000000' d='M60.0 294.0 L50.0 301.0 L60.0 308.0 z' />
    <path stroke='none' stroke-width='1,000000' stroke-linecap='round' stroke-linejoin='round' fill='#000000' d='M260.0 294.0 L270.0 301.0 L260.0 308.0 z' />
    <path stroke='none' stroke-width='1,000000' stroke-linecap='round' stroke-linejoin='round' fill='#000000' d='M620.0 294.0 L610.0 301.0 L620.0 308.0 z' />
    <path stroke='none' stroke-width='1,000000' stroke-linecap='round' stroke-linejoin='round' fill='#000000' d='M1300.0 294.0 L1310.0 301.0 L1300.0 308.0 z' />
    <path stroke='none' stroke-width='1,000000' stroke-linecap='round' stroke-linejoin='round' fill='#000000' d='M140.0 434.0 L145.0 448.0 L150.0 434.0 z' />
    <path stroke='none' stroke-width='1,000000' stroke-linecap='round' stroke-linejoin='round' fill='#000000' d='M950.0 434.0 L955.0 448.0 L960.0 434.0 z' />
    <path stroke='none' stroke-width='1,000000' stroke-linecap='round' stroke-linejoin='round' fill='#000000' d='M320.0 462.0 L310.0 469.0 L320.0 476.0 z' />
    <path stroke='none' stroke-width='1,000000' stroke-linecap='round' stroke-linejoin='round' fill='#000000' d='M560.0 462.0 L570.0 469.0 L560.0 476.0 z' />
    <path stroke='#000000' stroke-width='1,000000' stroke-linecap='round' stroke-linejoin='round' fill='none' d='M25.0 35.0 L25.0 567.0 ' />
    <path stroke='#000000' stroke-width='1,000000' stroke-linecap='round' stroke-linejoin='round' fill='none' d='M145.0 161.0 L145.0 273.0 ' />
    <path stroke='#000000' stroke-width='1,000000' stroke-linecap='round' stroke-linejoin='round' fill='none' d='M145.0 301.0 L145.0 441.0 ' />
    <path stroke='#000000' stroke-width='1,000000' stroke-linecap='round' stroke-linejoin='round' fill='none' d='M145.0 301.0 L55.0 301.0 ' />
    <path stroke='#000000' stroke-width='1,000000' stroke-linecap='round' stroke-linejoin='round' fill='none' d='M265.0 301.0 L145.0 301.0 ' />
    <path stroke='#000000' stroke-width='1,000000' stroke-linecap='round' stroke-linejoin='round' fill='none' d='M295.0 35.0 L295.0 567.0 ' />
    <path stroke='#000000' stroke-width='1,000000' stroke-linecap='round' stroke-linejoin='round' fill='none' d='M335.0 469.0 L315.0 469.0 ' />
    <path stroke='#000000' stroke-width='1,000000' stroke-linecap='round' stroke-linejoin='round' fill='none' d='M315.0 133.0 L345.0 133.0 ' />
    <path stroke='#000000' stroke-width='1,000000' stroke-linecap='round' stroke-linejoin='round' fill='none' d='M525.0 133.0 L565.0 133.0 ' />
    <path stroke='#000000' stroke-width='1,000000' stroke-linecap='round' stroke-linejoin='round' fill='none' d='M585.0 567.0 L585.0 35.0 ' />
    <path stroke='#000000' stroke-width='1,000000' stroke-linecap='round' stroke-linejoin='round' fill='none' d='M955.0 301.0 L955.0 441.0 ' />
    <path stroke='#000000' stroke-width='1,000000' stroke-linecap='round' stroke-linejoin='round' fill='none' d='M955.0 301.0 L615.0 301.0 ' />
    <path stroke='#000000' stroke-width='1,000000' stroke-linecap='round' stroke-linejoin='round' fill='none' d='M1305.0 301.0 L955.0 301.0 ' />
    <path stroke='#000000' stroke-width='1,000000' stroke-linecap='round' stroke-linejoin='round' fill='none' d='M565.0 469.0 L545.0 469.0 ' />
    <path stroke='#000000' stroke-width='1,000000' stroke-linecap='round' stroke-linejoin='round' fill='none' d='M955.0 161.0 L955.0 273.0 ' />
    <path stroke='#000000' stroke-width='1,000000' stroke-linecap='round' stroke-linejoin='round' fill='none' d='M1335.0 35.0 L1335.0 567.0 ' />
    <text x='103' y='292' font-family='Custom' font-size='13' stroke='none' fill='#000000' ><![CDATA[Printable area]]></text>
    <text x='371' y='474' font-family='Custom' font-size='13' stroke='none' fill='#000000' ><![CDATA[3 mm bottom margin]]></text>
    <text x='105' y='68' font-family='Custom' font-size='13' stroke='none' fill='#000000' ><![CDATA[previous label]]></text>
    <text x='379' y='138' font-family='Custom' font-size='13' stroke='none' fill='#000000' ><![CDATA[3 mm top margin]]></text>
    <text x='117' y='544' font-family='Custom' font-size='13' stroke='none' fill='#000000' ><![CDATA[next label]]></text>
    <text x='927' y='544' font-family='Custom' font-size='13' stroke='none' fill='#000000' ><![CDATA[next label]]></text>
    <text x='913' y='292' font-family='Custom' font-size='13' stroke='none' fill='#000000' ><![CDATA[Printable area]]></text>
    <text x='915' y='68' font-family='Custom' font-size='13' stroke='none' fill='#000000' ><![CDATA[previous label]]></text>
  </g>
</svg>