<?xml version='1.0' encoding='UTF-8' standalone='no'?>
<svg 
    xmlns='http://www.w3.org/2000/svg'
    width='870'
    height='532'
    shape-rendering='geometricPrecision'
    version='1.0'>
  <defs>
    <style type='text/css'>
      @font-face {
        font-family: Custom;
        src: url('Lato,regular');
      }
    </style>
    <filter id='f2' x='0' y='0' width='200%' height='200%'>
      <feOffset result='offOut' in='SourceGraphic' dx='5' dy='5' />
      <feGaussianBlur result='blurOut' in='offOut' stdDeviation='3' />
      <feBlend in='SourceGraphic' in2='blurOut' mode='normal' />
    </filter>
  </defs>
  <g stroke-width='1' stroke-linecap='square' stroke-linejoin='round'>
    <rect x='0' y='0' width='870' height='532' style='fill: #ffffff'/>
    <path stroke='gray' fill='gray' filter='url(#f2)' d='M770.0 91.0 Q775.0 91.0 775.0 98.0 L775.0 448.0 Q775.0 455.0 770.0 455.0 L50.0 455.0 L50.0 455.0 Q45.0 455.0 45.0 448.0 L45.0 98.0 L45.0 98.0 Q45.0 91.0 50.0 91.0 L770.0 91.0 z' />
    <path stroke='gray' fill='gray' filter='url(#f2)' d='M75.0 105.0 L75.0 441.0 L745.0 441.0 L745.0 105.0 z' />
    <path stroke='#000000' stroke-width='1,000000' stroke-linecap='round' stroke-linejoin='round' fill='white' d='M770.0 91.0 Q775.0 91.0 775.0 98.0 L775.0 448.0 Q775.0 455.0 770.0 455.0 L50.0 455.0 L50.0 455.0 Q45.0 455.0 45.0 448.0 L45.0 98.0 L45.0 98.0 Q45.0 91.0 50.0 91.0 L770.0 91.0 z' />
    <path stroke='#000000' stroke-width='1,000000' stroke-linecap='round' stroke-linejoin='round' fill='#eeeeee' d='M75.0 105.0 L75.0 441.0 L745.0 441.0 L745.0 105.0 z' />
    <path stroke='#000000' stroke-width='1,000000' stroke-linecap='round' stroke-linejoin='round' fill='none' d='M55.0 469.0 L55.0 497.0 L85.0 497.0 ' />
    <path stroke='#000000' stroke-width='1,000000' stroke-linecap='round' stroke-linejoin='round' fill='none' d='M745.0 497.0 L765.0 497.0 L765.0 469.0 ' />
    <path stroke='none' stroke-width='1,000000' stroke-linecap='round' stroke-linejoin='round' fill='#000000' d='M840.0 28.0 L850.0 35.0 L840.0 42.0 z' />
    <path stroke='none' stroke-width='1,000000' stroke-linecap='round' stroke-linejoin='round' fill='#000000' d='M60.0 56.0 L50.0 63.0 L60.0 70.0 z' />
    <path stroke='none' stroke-width='1,000000' stroke-linecap='round' stroke-linejoin='round' fill='#000000' d='M760.0 56.0 L770.0 63.0 L760.0 70.0 z' />
    <path stroke='none' stroke-width='1,000000' stroke-linecap='round' stroke-linejoin='round' fill='#000000' d='M805.0 98.0 L800.0 112.0 L810.0 112.0 z' />
    <path stroke='none' stroke-width='1,000000' stroke-linecap='round' stroke-linejoin='round' fill='#000000' d='M385.0 112.0 L380.0 126.0 L390.0 126.0 z' />
    <path stroke='none' stroke-width='1,000000' stroke-linecap='round' stroke-linejoin='round' fill='#000000' d='M90.0 266.0 L80.0 273.0 L90.0 280.0 z' />
    <path stroke='none' stroke-width='1,000000' stroke-linecap='round' stroke-linejoin='round' fill='#000000' d='M730.0 266.0 L740.0 273.0 L730.0 280.0 z' />
    <path stroke='none' stroke-width='1,000000' stroke-linecap='round' stroke-linejoin='round' fill='#000000' d='M380.0 420.0 L385.0 434.0 L390.0 420.0 z' />
    <path stroke='none' stroke-width='1,000000' stroke-linecap='round' stroke-linejoin='round' fill='#000000' d='M800.0 434.0 L805.0 448.0 L810.0 434.0 z' />
    <path stroke='none' stroke-width='1,000000' stroke-linecap='round' stroke-linejoin='round' fill='#000000' d='M55.0 462.0 L50.0 476.0 L60.0 476.0 z' />
    <path stroke='none' stroke-width='1,000000' stroke-linecap='round' stroke-linejoin='round' fill='#000000' d='M765.0 462.0 L760.0 476.0 L770.0 476.0 z' />
    <path stroke='#000000' stroke-width='1,000000' stroke-linecap='round' stroke-linejoin='round' fill='none' d='M45.0 56.0 L45.0 69.0 ' />
    <path stroke='#000000' stroke-width='1,000000' stroke-linecap='round' stroke-linejoin='round' fill='none' d='M775.0 56.0 L775.0 69.0 ' />
    <path stroke='#000000' stroke-width='1,000000' stroke-linecap='round' stroke-linejoin='round' fill='none' d='M25.0 35.0 L315.0 35.0 ' />
    <path stroke='#000000' stroke-width='1,000000' stroke-linecap='round' stroke-linejoin='round' fill='none' d='M385.0 273.0 L385.0 427.0 ' />
    <path stroke='#000000' stroke-width='1,000000' stroke-linecap='round' stroke-linejoin='round' fill='none' d='M385.0 273.0 L735.0 273.0 ' />
    <path stroke='#000000' stroke-width='1,000000' stroke-linecap='round' stroke-linejoin='round' fill='none' d='M85.0 273.0 L385.0 273.0 ' />
    <path stroke='#000000' stroke-width='1,000000' stroke-linecap='round' stroke-linejoin='round' fill='none' d='M55.0 63.0 L355.0 63.0 ' />
    <path stroke='#000000' stroke-width='1,000000' stroke-linecap='round' stroke-linejoin='round' fill='none' d='M385.0 245.0 L385.0 119.0 ' />
    <path stroke='#000000' stroke-width='1,000000' stroke-linecap='round' stroke-linejoin='round' fill='none' d='M765.0 63.0 L435.0 63.0 ' />
    <path stroke='#000000' stroke-width='1,000000' stroke-linecap='round' stroke-linejoin='round' fill='none' d='M845.0 35.0 L475.0 35.0 ' />
    <path stroke='#000000' stroke-width='1,000000' stroke-linecap='round' stroke-linejoin='round' fill='none' d='M815.0 455.0 L775.0 455.0 ' />
    <path stroke='#000000' stroke-width='1,000000' stroke-linecap='round' stroke-linejoin='round' fill='none' d='M805.0 301.0 L805.0 441.0 ' />
    <path stroke='#000000' stroke-width='1,000000' stroke-linecap='round' stroke-linejoin='round' fill='none' d='M805.0 245.0 L805.0 105.0 ' />
    <path stroke='#000000' stroke-width='1,000000' stroke-linecap='round' stroke-linejoin='round' fill='none' d='M815.0 91.0 L775.0 91.0 ' />
    <text x='571' y='502' font-family='Custom' font-size='13' stroke='none' fill='#000000' ><![CDATA[3 mm bottom margin]]></text>
    <text x='347' y='40' font-family='Custom' font-size='13' stroke='none' fill='#000000' ><![CDATA[print direction]]></text>
    <text x='374' y='68' font-family='Custom' font-size='13' stroke='none' fill='#000000' ><![CDATA[90 mm]]></text>
    <text x='125' y='502' font-family='Custom' font-size='13' stroke='none' fill='#000000' ><![CDATA[3 mm (top) margin]]></text>
    <text x='343' y='264' font-family='Custom' font-size='13' stroke='none' fill='#000000' ><![CDATA[Printable area]]></text>
    <text x='794' y='278' font-family='Custom' font-size='13' stroke='none' fill='#000000' ><![CDATA[29 mm]]></text>
  </g>
</svg>